\babel@toc {english}{}\relax 
\contentsline {section}{Εισαγωγή}{2}{Doc-Start}%
\contentsline {subsection}{Τεχνικές Λεπτομέρειες}{2}{section*.1}%
\contentsline {subsubsection}{Συγγραφή}{2}{section*.1}%
\contentsline {subsection}{Εξηγήσεις για τον φάκελο παραδοτέου}{2}{section*.1}%
\contentsline {subsection}{Αποθετήριο της εργασίας}{2}{section*.1}%
\contentsline {section}{\numberline {1}Ερώτημα 1}{3}{section.1}%
\contentsline {subsection}{\numberline {1.1}Πώς επιλέγουμε μεθοδολογία;}{3}{subsection.1.1}%
\contentsline {subsection}{\numberline {1.2}Οι μεθοδολογίες που απορρίψαμε}{3}{subsection.1.2}%
\contentsline {subsection}{\numberline {1.3}Η μεθοδολογία που επιλέξαμε}{4}{subsection.1.3}%
\contentsline {subsubsection}{\numberline {1.3.1}Θεωρητικό υπόβαθρο και φιλοσοφία της μεθοδολογίας }{4}{subsubsection.1.3.1}%
\contentsline {subsubsection}{\numberline {1.3.2}Πλεονεκτήματα της μεθοδολογίας}{5}{subsubsection.1.3.2}%
\contentsline {subsubsection}{\numberline {1.3.3}Λόγοι για τους οποίους επιλέξαμε τη συγκεκριμένη μεθοδολογία}{6}{subsubsection.1.3.3}%
\contentsline {subsubsection}{\numberline {1.3.4}Ρίσκα της μεθοδολογίας και τρόποι αντιμετώπισης}{7}{subsubsection.1.3.4}%
\contentsline {section}{\numberline {2}Ερώτημα 2}{8}{section.2}%
\contentsline {subsection}{\numberline {2.1}Περιγραφή του φυσικού αντικειμένου}{8}{subsection.2.1}%
\contentsline {subsection}{\numberline {2.2}Χρονικός προγραμματισμός, προγραμματισμός των πόρων και προϋπολογισμός του έργου μέσω του MS Project}{13}{subsection.2.2}%
\contentsline {subsubsection}{\numberline {2.2.1}Χρονοπρογραμματισμός}{13}{subsubsection.2.2.1}%
\contentsline {subsubsection}{\numberline {2.2.2}Προγραμματισμός πόρων}{16}{subsubsection.2.2.2}%
\contentsline {subsubsection}{\numberline {2.2.3}Προϋπολογισμός}{20}{subsubsection.2.2.3}%
\contentsline {subsection}{\numberline {2.3}Αναπαράσταση με WBS}{21}{subsection.2.3}%
\contentsline {section}{\numberline {3}Ερώτημα 3}{21}{section.3}%
\contentsline {subsection}{\numberline {3.1}Zachman Framework}{21}{subsection.3.1}%
